Chapter 3 Introduction to the tidyverse | ECOSCOPE: Data Science Workshops
…
3.5.7 Group by and Summarise

summarise (or summarize) is handy when we want to calculate summaries for
groups of observations. This is done by first applying the group_by verb
and then feeding it into summarise. For example, we can calculate the mean,
standard deviation, and sample size of oxygen concentrations by depth as follows.

dat %>%
  group_by(Depth) %>%
  summarise(Mean_O2=mean(O2, na.rm=TRUE),
            SD_O2=sd(O2, na.rm=TRUE),
            n=n())

## # A tibble: 24 x 4
##    Depth Mean_O2 SD_O2     n
##  * <dbl>   <dbl> <dbl> <int>
##  1    10   211.   55.8    83
##  2    20   187.   50.3    83
##  3    40   159.   38.3    83
##  4    60   138.   45.2    83
##  5    75   105.   54.8    82
##  6    80    32.3  NA       1
##  7    85    81.9  48.8    82
##  8    90    68.2  42.1    82
##  9    97    49.1  34.7    82
## 10   100    43.6  33.1    83
## # … with 14 more rows
…
