Chapter 5 Statistical models in R | ECOSCOPE: Data Science Workshops
…
Questions courtesy of Dr. Gabriela Cohen Freue’s DSCI 562 course (UBC)

If you are attending a 3 x 2-hour workshop, this is the end of day 1

5.4 Linear regression

5.4.1 Load and explore the data

Now, we will work with a data frame that Jennifer Bryan (U. of British Columbia, RStudio) put together in the gapminder package.

Unlike the fruit fly data, no pre-manipulation is needed so let’s view these data as is.

gapminder

## # A tibble: 1,704 x 6
##    country     continent  year lifeExp      pop gdpPercap
##    <fct>       <fct>     <int>   <dbl>    <int>     <dbl>
##  1 Afghanistan Asia       1952    28.8  8425333      779.
##  2 Afghanistan Asia       1957    30.3  9240934      821.
##  3 Afghanistan Asia       1962    32.0 10267083      853.
##  4 Afghanistan Asia       1967    34.0 11537966      836.
##  5 Afghanistan Asia       1972    36.1 13079460      740.
##  6 Afghanistan Asia       1977    38.4 14880372      786.
##  7 Afghanistan Asia       1982    39.9 12881816      978.
##  8 Afghanistan Asia       1987    40.8 13867957      852.
##  9 Afghanistan Asia       1992    41.7 16317921      649.
## 10 Afghanistan Asia       1997    41.8 22227415      635.
## # … with 1,694 more rows
…
